ASAVARI
SWARA TRIAD, CHORD NAME, GUITAR CHORD SHAPES
S g P, G♯Min, http://www.chordsdatabase.com/guitar/G♯m-chord/
R m d, A♯Dim, http://www.chordsdatabase.com/guitar/A♯°-chord/
g P n, BMaj, http://www.chordsdatabase.com/guitar/B-chord/
m d S, C♯Min, http://www.chordsdatabase.com/guitar/C♯m-chord/
P n R, D♯Min, http://www.chordsdatabase.com/guitar/D♯m-chord/
d S g, EMaj, http://www.chordsdatabase.com/guitar/E-chord/
n R m, F♯Maj, http://www.chordsdatabase.com/guitar/F♯-chord/


BHAIRAV
SWARA TRIAD, CHORD NAME, GUITAR CHORD SHAPES
S G P, G♯Maj, http://www.chordsdatabase.com/guitar/G♯-chord/
r m d, AMaj, http://www.chordsdatabase.com/guitar/A-chord/
G P n, CDim, http://www.chordsdatabase.com/guitar/C°-chord/
m d S, C♯Min, http://www.chordsdatabase.com/guitar/C♯m-chord/
P n r, D♯Dim, http://www.chordsdatabase.com/guitar/D♯°-chord/
d S G, EAug, http://www.chordsdatabase.com/guitar/E+-chord/
n r m, F♯Min, http://www.chordsdatabase.com/guitar/F♯m-chord/


BHAIRAVI
SWARA TRIAD, CHORD NAME, GUITAR CHORD SHAPES
S g P, G♯Min, http://www.chordsdatabase.com/guitar/G♯m-chord/
r m d, AMaj, http://www.chordsdatabase.com/guitar/A-chord/
g P n, BMaj, http://www.chordsdatabase.com/guitar/B-chord/
m d S, C♯Min, http://www.chordsdatabase.com/guitar/C♯m-chord/
P n r, D♯Dim, http://www.chordsdatabase.com/guitar/D♯°-chord/
d S g, EMaj, http://www.chordsdatabase.com/guitar/E-chord/
n r m, F♯Min, http://www.chordsdatabase.com/guitar/F♯m-chord/


BILAWAL
SWARA TRIAD, CHORD NAME, GUITAR CHORD SHAPES
S G P, G♯Maj, http://www.chordsdatabase.com/guitar/G♯-chord/
R m D, A♯Min, http://www.chordsdatabase.com/guitar/A♯m-chord/
G P N, CMin, http://www.chordsdatabase.com/guitar/Cm-chord/
m D S, C♯Maj, http://www.chordsdatabase.com/guitar/C♯-chord/
P N R, D♯Maj, http://www.chordsdatabase.com/guitar/D♯-chord/
D S G, FMin, http://www.chordsdatabase.com/guitar/Fm-chord/
N R m, GDim, http://www.chordsdatabase.com/guitar/G°-chord/


KAFI
SWARA TRIAD, CHORD NAME, GUITAR CHORD SHAPES
S g P, G♯Min, http://www.chordsdatabase.com/guitar/G♯m-chord/
R m D, A♯Min, http://www.chordsdatabase.com/guitar/A♯m-chord/
g P n, BMaj, http://www.chordsdatabase.com/guitar/B-chord/
m D S, C♯Maj, http://www.chordsdatabase.com/guitar/C♯-chord/
P n R, D♯Min, http://www.chordsdatabase.com/guitar/D♯m-chord/
D S g, FDim, http://www.chordsdatabase.com/guitar/F°-chord/
n R m, F♯Maj, http://www.chordsdatabase.com/guitar/F♯-chord/


KALYAN
SWARA TRIAD, CHORD NAME, GUITAR CHORD SHAPES
S G P, G♯Maj, http://www.chordsdatabase.com/guitar/G♯-chord/
R M D, A♯Maj, http://www.chordsdatabase.com/guitar/A♯-chord/
G P N, CMin, http://www.chordsdatabase.com/guitar/Cm-chord/
M D S, DDim, http://www.chordsdatabase.com/guitar/D°-chord/
P N R, D♯Maj, http://www.chordsdatabase.com/guitar/D♯-chord/
D S G, FMin, http://www.chordsdatabase.com/guitar/Fm-chord/
N R M, GMin, http://www.chordsdatabase.com/guitar/Gm-chord/


KHAMAJ
SWARA TRIAD, CHORD NAME, GUITAR CHORD SHAPES
S G P, G♯Maj, http://www.chordsdatabase.com/guitar/G♯-chord/
R m D, A♯Min, http://www.chordsdatabase.com/guitar/A♯m-chord/
G P n, CDim, http://www.chordsdatabase.com/guitar/C°-chord/
m D S, C♯Maj, http://www.chordsdatabase.com/guitar/C♯-chord/
P n R, D♯Min, http://www.chordsdatabase.com/guitar/D♯m-chord/
D S G, FMin, http://www.chordsdatabase.com/guitar/Fm-chord/
n R m, F♯Maj, http://www.chordsdatabase.com/guitar/F♯-chord/


MARWA
SWARA TRIAD, CHORD NAME, GUITAR CHORD SHAPES
S G P, G♯Maj, http://www.chordsdatabase.com/guitar/G♯-chord/
r M D, A** Unfamiliar intervals **, Unavailable.
G P N, CMin, http://www.chordsdatabase.com/guitar/Cm-chord/
M D S, DDim, http://www.chordsdatabase.com/guitar/D°-chord/
P N r, D♯Half-Dim, http://www.chordsdatabase.com/guitar/D♯°-chord/
D S G, FMin, http://www.chordsdatabase.com/guitar/Fm-chord/
N r M, GSus2, http://www.chordsdatabase.com/guitar/Gsus2-chord/


POORVI
SWARA TRIAD, CHORD NAME, GUITAR CHORD SHAPES
S G P, G♯Maj, http://www.chordsdatabase.com/guitar/G♯-chord/
r M d, ASus4, http://www.chordsdatabase.com/guitar/Asus4-chord/
G P N, CMin, http://www.chordsdatabase.com/guitar/Cm-chord/
M d S, D** Unfamiliar intervals **, Unavailable.
P N r, D♯Half-Dim, http://www.chordsdatabase.com/guitar/D♯°-chord/
d S G, EAug, http://www.chordsdatabase.com/guitar/E+-chord/
N r M, GSus2, http://www.chordsdatabase.com/guitar/Gsus2-chord/


TODI
SWARA TRIAD, CHORD NAME, GUITAR CHORD SHAPES
S g P, G♯Min, http://www.chordsdatabase.com/guitar/G♯m-chord/
r M d, ASus4, http://www.chordsdatabase.com/guitar/Asus4-chord/
g P N, BAug, http://www.chordsdatabase.com/guitar/B+-chord/
M d S, D** Unfamiliar intervals **, Unavailable.
P N r, D♯Half-Dim, http://www.chordsdatabase.com/guitar/D♯°-chord/
d S g, EMaj, http://www.chordsdatabase.com/guitar/E-chord/
N r M, GSus2, http://www.chordsdatabase.com/guitar/Gsus2-chord/


