ASAVARI
SWARA TRIAD, CHORD NAME, GUITAR CHORD SHAPES
S g P, C♯Min, http://www.chordsdatabase.com/guitar/C♯m-chord/
R m d, D♯Dim, http://www.chordsdatabase.com/guitar/D♯°-chord/
g P n, EMaj, http://www.chordsdatabase.com/guitar/E-chord/
m d S, F♯Min, http://www.chordsdatabase.com/guitar/F♯m-chord/
P n R, G♯Min, http://www.chordsdatabase.com/guitar/G♯m-chord/
d S g, AMaj, http://www.chordsdatabase.com/guitar/A-chord/
n R m, BMaj, http://www.chordsdatabase.com/guitar/B-chord/


BHAIRAV
SWARA TRIAD, CHORD NAME, GUITAR CHORD SHAPES
S G P, C♯Maj, http://www.chordsdatabase.com/guitar/C♯-chord/
r m d, DMaj, http://www.chordsdatabase.com/guitar/D-chord/
G P n, FDim, http://www.chordsdatabase.com/guitar/F°-chord/
m d S, F♯Min, http://www.chordsdatabase.com/guitar/F♯m-chord/
P n r, G♯Dim, http://www.chordsdatabase.com/guitar/G♯°-chord/
d S G, AAug, http://www.chordsdatabase.com/guitar/A+-chord/
n r m, BMin, http://www.chordsdatabase.com/guitar/Bm-chord/


BHAIRAVI
SWARA TRIAD, CHORD NAME, GUITAR CHORD SHAPES
S g P, C♯Min, http://www.chordsdatabase.com/guitar/C♯m-chord/
r m d, DMaj, http://www.chordsdatabase.com/guitar/D-chord/
g P n, EMaj, http://www.chordsdatabase.com/guitar/E-chord/
m d S, F♯Min, http://www.chordsdatabase.com/guitar/F♯m-chord/
P n r, G♯Dim, http://www.chordsdatabase.com/guitar/G♯°-chord/
d S g, AMaj, http://www.chordsdatabase.com/guitar/A-chord/
n r m, BMin, http://www.chordsdatabase.com/guitar/Bm-chord/


BILAWAL
SWARA TRIAD, CHORD NAME, GUITAR CHORD SHAPES
S G P, C♯Maj, http://www.chordsdatabase.com/guitar/C♯-chord/
R m D, D♯Min, http://www.chordsdatabase.com/guitar/D♯m-chord/
G P N, FMin, http://www.chordsdatabase.com/guitar/Fm-chord/
m D S, F♯Maj, http://www.chordsdatabase.com/guitar/F♯-chord/
P N R, G♯Maj, http://www.chordsdatabase.com/guitar/G♯-chord/
D S G, A♯Min, http://www.chordsdatabase.com/guitar/A♯m-chord/
N R m, CDim, http://www.chordsdatabase.com/guitar/C°-chord/


KAFI
SWARA TRIAD, CHORD NAME, GUITAR CHORD SHAPES
S g P, C♯Min, http://www.chordsdatabase.com/guitar/C♯m-chord/
R m D, D♯Min, http://www.chordsdatabase.com/guitar/D♯m-chord/
g P n, EMaj, http://www.chordsdatabase.com/guitar/E-chord/
m D S, F♯Maj, http://www.chordsdatabase.com/guitar/F♯-chord/
P n R, G♯Min, http://www.chordsdatabase.com/guitar/G♯m-chord/
D S g, A♯Dim, http://www.chordsdatabase.com/guitar/A♯°-chord/
n R m, BMaj, http://www.chordsdatabase.com/guitar/B-chord/


KALYAN
SWARA TRIAD, CHORD NAME, GUITAR CHORD SHAPES
S G P, C♯Maj, http://www.chordsdatabase.com/guitar/C♯-chord/
R M D, D♯Maj, http://www.chordsdatabase.com/guitar/D♯-chord/
G P N, FMin, http://www.chordsdatabase.com/guitar/Fm-chord/
M D S, GDim, http://www.chordsdatabase.com/guitar/G°-chord/
P N R, G♯Maj, http://www.chordsdatabase.com/guitar/G♯-chord/
D S G, A♯Min, http://www.chordsdatabase.com/guitar/A♯m-chord/
N R M, CMin, http://www.chordsdatabase.com/guitar/Cm-chord/


KHAMAJ
SWARA TRIAD, CHORD NAME, GUITAR CHORD SHAPES
S G P, C♯Maj, http://www.chordsdatabase.com/guitar/C♯-chord/
R m D, D♯Min, http://www.chordsdatabase.com/guitar/D♯m-chord/
G P n, FDim, http://www.chordsdatabase.com/guitar/F°-chord/
m D S, F♯Maj, http://www.chordsdatabase.com/guitar/F♯-chord/
P n R, G♯Min, http://www.chordsdatabase.com/guitar/G♯m-chord/
D S G, A♯Min, http://www.chordsdatabase.com/guitar/A♯m-chord/
n R m, BMaj, http://www.chordsdatabase.com/guitar/B-chord/


MARWA
SWARA TRIAD, CHORD NAME, GUITAR CHORD SHAPES
S G P, C♯Maj, http://www.chordsdatabase.com/guitar/C♯-chord/
r M D, D** Unfamiliar intervals **, Unavailable.
G P N, FMin, http://www.chordsdatabase.com/guitar/Fm-chord/
M D S, GDim, http://www.chordsdatabase.com/guitar/G°-chord/
P N r, G♯Half-Dim, http://www.chordsdatabase.com/guitar/G♯°-chord/
D S G, A♯Min, http://www.chordsdatabase.com/guitar/A♯m-chord/
N r M, CSus2, http://www.chordsdatabase.com/guitar/Csus2-chord/


POORVI
SWARA TRIAD, CHORD NAME, GUITAR CHORD SHAPES
S G P, C♯Maj, http://www.chordsdatabase.com/guitar/C♯-chord/
r M d, DSus4, http://www.chordsdatabase.com/guitar/Dsus4-chord/
G P N, FMin, http://www.chordsdatabase.com/guitar/Fm-chord/
M d S, G** Unfamiliar intervals **, Unavailable.
P N r, G♯Half-Dim, http://www.chordsdatabase.com/guitar/G♯°-chord/
d S G, AAug, http://www.chordsdatabase.com/guitar/A+-chord/
N r M, CSus2, http://www.chordsdatabase.com/guitar/Csus2-chord/


TODI
SWARA TRIAD, CHORD NAME, GUITAR CHORD SHAPES
S g P, C♯Min, http://www.chordsdatabase.com/guitar/C♯m-chord/
r M d, DSus4, http://www.chordsdatabase.com/guitar/Dsus4-chord/
g P N, EAug, http://www.chordsdatabase.com/guitar/E+-chord/
M d S, G** Unfamiliar intervals **, Unavailable.
P N r, G♯Half-Dim, http://www.chordsdatabase.com/guitar/G♯°-chord/
d S g, AMaj, http://www.chordsdatabase.com/guitar/A-chord/
N r M, CSus2, http://www.chordsdatabase.com/guitar/Csus2-chord/


