ASAVARI
SWARA TRIAD, CHORD NAME, GUITAR CHORD SHAPES
S g P, CMin, http://www.chordsdatabase.com/guitar/Cm-chord/
R m d, DDim, http://www.chordsdatabase.com/guitar/D°-chord/
g P n, D♯Maj, http://www.chordsdatabase.com/guitar/D♯-chord/
m d S, FMin, http://www.chordsdatabase.com/guitar/Fm-chord/
P n R, GMin, http://www.chordsdatabase.com/guitar/Gm-chord/
d S g, G♯Maj, http://www.chordsdatabase.com/guitar/G♯-chord/
n R m, A♯Maj, http://www.chordsdatabase.com/guitar/A♯-chord/


BHAIRAV
SWARA TRIAD, CHORD NAME, GUITAR CHORD SHAPES
S G P, CMaj, http://www.chordsdatabase.com/guitar/C-chord/
r m d, C♯Maj, http://www.chordsdatabase.com/guitar/C♯-chord/
G P n, EDim, http://www.chordsdatabase.com/guitar/E°-chord/
m d S, FMin, http://www.chordsdatabase.com/guitar/Fm-chord/
P n r, GDim, http://www.chordsdatabase.com/guitar/G°-chord/
d S G, G♯Aug, http://www.chordsdatabase.com/guitar/G♯+-chord/
n r m, A♯Min, http://www.chordsdatabase.com/guitar/A♯m-chord/


BHAIRAVI
SWARA TRIAD, CHORD NAME, GUITAR CHORD SHAPES
S g P, CMin, http://www.chordsdatabase.com/guitar/Cm-chord/
r m d, C♯Maj, http://www.chordsdatabase.com/guitar/C♯-chord/
g P n, D♯Maj, http://www.chordsdatabase.com/guitar/D♯-chord/
m d S, FMin, http://www.chordsdatabase.com/guitar/Fm-chord/
P n r, GDim, http://www.chordsdatabase.com/guitar/G°-chord/
d S g, G♯Maj, http://www.chordsdatabase.com/guitar/G♯-chord/
n r m, A♯Min, http://www.chordsdatabase.com/guitar/A♯m-chord/


BILAWAL
SWARA TRIAD, CHORD NAME, GUITAR CHORD SHAPES
S G P, CMaj, http://www.chordsdatabase.com/guitar/C-chord/
R m D, DMin, http://www.chordsdatabase.com/guitar/Dm-chord/
G P N, EMin, http://www.chordsdatabase.com/guitar/Em-chord/
m D S, FMaj, http://www.chordsdatabase.com/guitar/F-chord/
P N R, GMaj, http://www.chordsdatabase.com/guitar/G-chord/
D S G, AMin, http://www.chordsdatabase.com/guitar/Am-chord/
N R m, BDim, http://www.chordsdatabase.com/guitar/B°-chord/


KAFI
SWARA TRIAD, CHORD NAME, GUITAR CHORD SHAPES
S g P, CMin, http://www.chordsdatabase.com/guitar/Cm-chord/
R m D, DMin, http://www.chordsdatabase.com/guitar/Dm-chord/
g P n, D♯Maj, http://www.chordsdatabase.com/guitar/D♯-chord/
m D S, FMaj, http://www.chordsdatabase.com/guitar/F-chord/
P n R, GMin, http://www.chordsdatabase.com/guitar/Gm-chord/
D S g, ADim, http://www.chordsdatabase.com/guitar/A°-chord/
n R m, A♯Maj, http://www.chordsdatabase.com/guitar/A♯-chord/


KALYAN
SWARA TRIAD, CHORD NAME, GUITAR CHORD SHAPES
S G P, CMaj, http://www.chordsdatabase.com/guitar/C-chord/
R M D, DMaj, http://www.chordsdatabase.com/guitar/D-chord/
G P N, EMin, http://www.chordsdatabase.com/guitar/Em-chord/
M D S, F♯Dim, http://www.chordsdatabase.com/guitar/F♯°-chord/
P N R, GMaj, http://www.chordsdatabase.com/guitar/G-chord/
D S G, AMin, http://www.chordsdatabase.com/guitar/Am-chord/
N R M, BMin, http://www.chordsdatabase.com/guitar/Bm-chord/


KHAMAJ
SWARA TRIAD, CHORD NAME, GUITAR CHORD SHAPES
S G P, CMaj, http://www.chordsdatabase.com/guitar/C-chord/
R m D, DMin, http://www.chordsdatabase.com/guitar/Dm-chord/
G P n, EDim, http://www.chordsdatabase.com/guitar/E°-chord/
m D S, FMaj, http://www.chordsdatabase.com/guitar/F-chord/
P n R, GMin, http://www.chordsdatabase.com/guitar/Gm-chord/
D S G, AMin, http://www.chordsdatabase.com/guitar/Am-chord/
n R m, A♯Maj, http://www.chordsdatabase.com/guitar/A♯-chord/


MARWA
SWARA TRIAD, CHORD NAME, GUITAR CHORD SHAPES
S G P, CMaj, http://www.chordsdatabase.com/guitar/C-chord/
r M D, C♯** Unfamiliar intervals **, Unavailable.
G P N, EMin, http://www.chordsdatabase.com/guitar/Em-chord/
M D S, F♯Dim, http://www.chordsdatabase.com/guitar/F♯°-chord/
P N r, GHalf-Dim, http://www.chordsdatabase.com/guitar/G°-chord/
D S G, AMin, http://www.chordsdatabase.com/guitar/Am-chord/
N r M, BSus2, http://www.chordsdatabase.com/guitar/Bsus2-chord/


POORVI
SWARA TRIAD, CHORD NAME, GUITAR CHORD SHAPES
S G P, CMaj, http://www.chordsdatabase.com/guitar/C-chord/
r M d, C♯Sus4, http://www.chordsdatabase.com/guitar/C♯sus4-chord/
G P N, EMin, http://www.chordsdatabase.com/guitar/Em-chord/
M d S, F♯** Unfamiliar intervals **, Unavailable.
P N r, GHalf-Dim, http://www.chordsdatabase.com/guitar/G°-chord/
d S G, G♯Aug, http://www.chordsdatabase.com/guitar/G♯+-chord/
N r M, BSus2, http://www.chordsdatabase.com/guitar/Bsus2-chord/


TODI
SWARA TRIAD, CHORD NAME, GUITAR CHORD SHAPES
S g P, CMin, http://www.chordsdatabase.com/guitar/Cm-chord/
r M d, C♯Sus4, http://www.chordsdatabase.com/guitar/C♯sus4-chord/
g P N, D♯Aug, http://www.chordsdatabase.com/guitar/D♯+-chord/
M d S, F♯** Unfamiliar intervals **, Unavailable.
P N r, GHalf-Dim, http://www.chordsdatabase.com/guitar/G°-chord/
d S g, G♯Maj, http://www.chordsdatabase.com/guitar/G♯-chord/
N r M, BSus2, http://www.chordsdatabase.com/guitar/Bsus2-chord/


