ASAVARI
SWARA TRIAD, CHORD NAME, GUITAR CHORD SHAPES
S g P, FMin, http://www.chordsdatabase.com/guitar/Fm-chord/
R m d, GDim, http://www.chordsdatabase.com/guitar/G°-chord/
g P n, G♯Maj, http://www.chordsdatabase.com/guitar/G♯-chord/
m d S, A♯Min, http://www.chordsdatabase.com/guitar/A♯m-chord/
P n R, CMin, http://www.chordsdatabase.com/guitar/Cm-chord/
d S g, C♯Maj, http://www.chordsdatabase.com/guitar/C♯-chord/
n R m, D♯Maj, http://www.chordsdatabase.com/guitar/D♯-chord/


BHAIRAV
SWARA TRIAD, CHORD NAME, GUITAR CHORD SHAPES
S G P, FMaj, http://www.chordsdatabase.com/guitar/F-chord/
r m d, F♯Maj, http://www.chordsdatabase.com/guitar/F♯-chord/
G P n, ADim, http://www.chordsdatabase.com/guitar/A°-chord/
m d S, A♯Min, http://www.chordsdatabase.com/guitar/A♯m-chord/
P n r, CDim, http://www.chordsdatabase.com/guitar/C°-chord/
d S G, C♯Aug, http://www.chordsdatabase.com/guitar/C♯+-chord/
n r m, D♯Min, http://www.chordsdatabase.com/guitar/D♯m-chord/


BHAIRAVI
SWARA TRIAD, CHORD NAME, GUITAR CHORD SHAPES
S g P, FMin, http://www.chordsdatabase.com/guitar/Fm-chord/
r m d, F♯Maj, http://www.chordsdatabase.com/guitar/F♯-chord/
g P n, G♯Maj, http://www.chordsdatabase.com/guitar/G♯-chord/
m d S, A♯Min, http://www.chordsdatabase.com/guitar/A♯m-chord/
P n r, CDim, http://www.chordsdatabase.com/guitar/C°-chord/
d S g, C♯Maj, http://www.chordsdatabase.com/guitar/C♯-chord/
n r m, D♯Min, http://www.chordsdatabase.com/guitar/D♯m-chord/


BILAWAL
SWARA TRIAD, CHORD NAME, GUITAR CHORD SHAPES
S G P, FMaj, http://www.chordsdatabase.com/guitar/F-chord/
R m D, GMin, http://www.chordsdatabase.com/guitar/Gm-chord/
G P N, AMin, http://www.chordsdatabase.com/guitar/Am-chord/
m D S, A♯Maj, http://www.chordsdatabase.com/guitar/A♯-chord/
P N R, CMaj, http://www.chordsdatabase.com/guitar/C-chord/
D S G, DMin, http://www.chordsdatabase.com/guitar/Dm-chord/
N R m, EDim, http://www.chordsdatabase.com/guitar/E°-chord/


KAFI
SWARA TRIAD, CHORD NAME, GUITAR CHORD SHAPES
S g P, FMin, http://www.chordsdatabase.com/guitar/Fm-chord/
R m D, GMin, http://www.chordsdatabase.com/guitar/Gm-chord/
g P n, G♯Maj, http://www.chordsdatabase.com/guitar/G♯-chord/
m D S, A♯Maj, http://www.chordsdatabase.com/guitar/A♯-chord/
P n R, CMin, http://www.chordsdatabase.com/guitar/Cm-chord/
D S g, DDim, http://www.chordsdatabase.com/guitar/D°-chord/
n R m, D♯Maj, http://www.chordsdatabase.com/guitar/D♯-chord/


KALYAN
SWARA TRIAD, CHORD NAME, GUITAR CHORD SHAPES
S G P, FMaj, http://www.chordsdatabase.com/guitar/F-chord/
R M D, GMaj, http://www.chordsdatabase.com/guitar/G-chord/
G P N, AMin, http://www.chordsdatabase.com/guitar/Am-chord/
M D S, BDim, http://www.chordsdatabase.com/guitar/B°-chord/
P N R, CMaj, http://www.chordsdatabase.com/guitar/C-chord/
D S G, DMin, http://www.chordsdatabase.com/guitar/Dm-chord/
N R M, EMin, http://www.chordsdatabase.com/guitar/Em-chord/


KHAMAJ
SWARA TRIAD, CHORD NAME, GUITAR CHORD SHAPES
S G P, FMaj, http://www.chordsdatabase.com/guitar/F-chord/
R m D, GMin, http://www.chordsdatabase.com/guitar/Gm-chord/
G P n, ADim, http://www.chordsdatabase.com/guitar/A°-chord/
m D S, A♯Maj, http://www.chordsdatabase.com/guitar/A♯-chord/
P n R, CMin, http://www.chordsdatabase.com/guitar/Cm-chord/
D S G, DMin, http://www.chordsdatabase.com/guitar/Dm-chord/
n R m, D♯Maj, http://www.chordsdatabase.com/guitar/D♯-chord/


MARWA
SWARA TRIAD, CHORD NAME, GUITAR CHORD SHAPES
S G P, FMaj, http://www.chordsdatabase.com/guitar/F-chord/
r M D, F♯** Unfamiliar intervals **, Unavailable.
G P N, AMin, http://www.chordsdatabase.com/guitar/Am-chord/
M D S, BDim, http://www.chordsdatabase.com/guitar/B°-chord/
P N r, CHalf-Dim, http://www.chordsdatabase.com/guitar/C°-chord/
D S G, DMin, http://www.chordsdatabase.com/guitar/Dm-chord/
N r M, ESus2, http://www.chordsdatabase.com/guitar/Esus2-chord/


POORVI
SWARA TRIAD, CHORD NAME, GUITAR CHORD SHAPES
S G P, FMaj, http://www.chordsdatabase.com/guitar/F-chord/
r M d, F♯Sus4, http://www.chordsdatabase.com/guitar/F♯sus4-chord/
G P N, AMin, http://www.chordsdatabase.com/guitar/Am-chord/
M d S, B** Unfamiliar intervals **, Unavailable.
P N r, CHalf-Dim, http://www.chordsdatabase.com/guitar/C°-chord/
d S G, C♯Aug, http://www.chordsdatabase.com/guitar/C♯+-chord/
N r M, ESus2, http://www.chordsdatabase.com/guitar/Esus2-chord/


TODI
SWARA TRIAD, CHORD NAME, GUITAR CHORD SHAPES
S g P, FMin, http://www.chordsdatabase.com/guitar/Fm-chord/
r M d, F♯Sus4, http://www.chordsdatabase.com/guitar/F♯sus4-chord/
g P N, G♯Aug, http://www.chordsdatabase.com/guitar/G♯+-chord/
M d S, B** Unfamiliar intervals **, Unavailable.
P N r, CHalf-Dim, http://www.chordsdatabase.com/guitar/C°-chord/
d S g, C♯Maj, http://www.chordsdatabase.com/guitar/C♯-chord/
N r M, ESus2, http://www.chordsdatabase.com/guitar/Esus2-chord/


